Test/graphs test MPPT 11_12_18/tek0003ALL.csv

Model,DPO3014
Firmware Version,2.38

Waveform Type,ANALOG,,
Point Format,Y,,
Horizontal Units,s,,
Horizontal Scale,0.002,,
Horizontal Delay,1.6e-05,,
Sample Interval,2e-06,,
Record Length,10000,,
Gating,0.0% to 100.0%,,
Probe Attenuation,1,,
Vertical Units,V,,
Vertical Offset,0,,
Vertical Scale,10,,
Vertical Position,-2.18,,
,,,
,,,
,,,
Label,,,
TIME,CH1,CH2,CH3
-9.9840e-03,19.4,12.6,35.8
-9.9820e-03,19,12.4,35
-9.9800e-03,19.8,12.2,35
-9.9780e-03,19.8,12.6,35
-9.9760e-03,19.4,12.4,35.8
-9.9740e-03,19.4,12,35.8
-9.9720e-03,19.8,12.4,35.8
-9.9700e-03,19,12.2,32.2
-9.9680e-03,19.4,12.2,35
-9.9660e-03,19.8,12.2,35
-9.9640e-03,19,12.6,35
-9.9620e-03,19,12.2,35
-9.9600e-03,19.4,12.4,35
-9.9580e-03,19.8,12.4,34.6
-9.9560e-03,20.2,12.4,35
-9.9540e-03,20.2,12.4,35.4
-9.9520e-03,19.8,12.6,35.4
-9.9500e-03,20.2,12.4,35.4
-9.9480e-03,19.8,12.2,35
-9.9460e-03,19,12.4,34.6
-9.9440e-03,20.2,12.4,34.6
-9.9420e-03,20.2,12.6,35.4
-9.9400e-03,19.8,12.2,35
-9.9380e-03,19.4,12.2,34.6
-9.9360e-03,19.8,12.6,35.4
-9.9340e-03,20.2,12.6,34.6
-9.9320e-03,19,12.6,35.4
-9.9300e-03,19.8,12.4,34.6
-9.9280e-03,19.4,12.6,35
-9.9260e-03,19.8,12.6,34.6
-9.9240e-03,19.4,12.2,35.4
-9.9220e-03,19.4,12.6,35
-9.9200e-03,19.4,12.4,35.4
-9.9180e-03,20.2,12.6,34.6
-9.9160e-03,19.8,12.6,35
-9.9140e-03,19.4,12.4,35.4
-9.9120e-03,19.8,12.4,34.6
-9.9100e-03,20.6,12.4,35.8
-9.9080e-03,19.8,12.4,35
-9.9060e-03,19.8,12.2,34.6
-9.9040e-03,19.8,12,35.4
-9.9020e-03,20.2,12.6,35.4
-9.9000e-03,20.2,12.4,35
-9.8980e-03,19.8,12.6,35
-9.8960e-03,20.6,12.4,34.6
-9.8940e-03,19.8,12.2,35.4
-9.8920e-03,20.2,12.6,35
-9.8900e-03,19.8,12.6,35
-9.8880e-03,19.8,12.2,35
-9.8860e-03,19.8,12.4,35
-9.8840e-03,19.8,12.4,35
-9.8820e-03,19.4,12.6,35.4
-9.8800e-03,19.8,12.6,34.6
-9.8780e-03,20.2,12.2,34.6
-9.8760e-03,20.6,12.4,35
-9.8740e-03,20.2,12.6,35.8
-9.8720e-03,19.8,12,35
-9.8700e-03,20.2,12.2,33
-9.8680e-03,19,12.2,34.6
-9.8660e-03,19.4,12.4,35.4
-9.8640e-03,19.8,12.4,35
-9.8620e-03,19.8,12.4,35
-9.8600e-03,19.8,12.6,35.8
-9.8580e-03,19.4,12.4,35.8
-9.8560e-03,19.4,12.6,35.4
-9.8540e-03,19.8,12.6,35.4
-9.8520e-03,19.8,12.6,35
-9.8500e-03,19.4,12.6,35
-9.8480e-03,19.4,12.6,34.6
-9.8460e-03,20.2,12.4,35.8
-9.8440e-03,20.2,12.2,35
-9.8420e-03,20.2,12,35.4
-9.8400e-03,20.2,12.4,34.6
-9.8380e-03,19.4,12.4,34.6
-9.8360e-03,19.4,12,35
-9.8340e-03,19.8,12.2,35.8
-9.8320e-03,19.4,12.6,35
-9.8300e-03,19,12.4,35
-9.8280e-03,19.4,12.4,34.2
-9.8260e-03,20.2,12.2,35
-9.8240e-03,19.4,12.6,35.4
-9.8220e-03,19.4,12.4,35
-9.8200e-03,19.8,12.4,35.4
-9.8180e-03,20.2,12.4,34.6
-9.8160e-03,19.8,12.2,35.8
-9.8140e-03,19.8,12.6,35.4
-9.8120e-03,19.8,12.4,35.4
-9.8100e-03,19.8,12.4,35
-9.8080e-03,20.2,12.6,35
-9.8060e-03,19.8,12.4,34.6
-9.8040e-03,19.4,12.2,35.8
-9.8020e-03,19.8,12.4,35.8
-9.8000e-03,19.8,12.8,35
-9.7980e-03,19.4,12.4,35.8
-9.7960e-03,20.2,12.4,35.4
-9.7940e-03,20.2,12.4,35
-9.7920e-03,19.4,12.2,34.6
-9.7900e-03,19.8,12.4,34.6
-9.7880e-03,19.4,12.6,34.6
-9.7860e-03,20.2,12.6,35
-9.7840e-03,20.6,12.2,34.6
-9.7820e-03,19.8,12.4,35
-9.7800e-03,19.8,12.6,35
-9.7780e-03,19.4,12.4,35.4
-9.7760e-03,19.8,12.6,35.4
-9.7740e-03,20.2,12.4,35
-9.7720e-03,19.8,12.6,35.4
-9.7700e-03,20.2,12.6,34.2
-9.7680e-03,19.4,12.6,35
-9.7660e-03,19.4,12.4,35.4
-9.7640e-03,20.2,12.6,34.6
-9.7620e-03,19.8,12.4,35
-9.7600e-03,20.2,12.4,35.4
-9.7580e-03,19.4,12.4,35
-9.7560e-03,20.2,12.2,35
-9.7540e-03,19.8,12.8,34.6
-9.7520e-03,20.2,12.2,35.8
-9.7500e-03,19.8,12.6,33.4
-9.7480e-03,19.8,12.4,35.4
-9.7460e-03,19,12.4,35.8
-9.7440e-03,20.2,12.4,35.4
-9.7420e-03,20.2,12.4,35.4
-9.7400e-03,20.2,12.2,35
-9.7380e-03,19.4,12.6,35.4
-9.7360e-03,19.8,12.4,34.6
-9.7340e-03,19.4,12.6,34.6
-9.7320e-03,19.4,12.2,35.4
-9.7300e-03,20.2,12.2,35
-9.7280e-03,19,12.6,35
-9.7260e-03,19.4,12.6,35
-9.7240e-03,19.4,12.6,35
-9.7220e-03,19.4,12.2,35
-9.7200e-03,19.8,12.6,35
-9.7180e-03,19.4,12.6,35
-9.7160e-03,19.4,12.4,35
-9.7140e-03,19.8,12.2,35.4
-9.7120e-03,20.2,12.4,35.8
-9.7100e-03,20.2,12.2,34.2
-9.7080e-03,19,12.6,35
-9.7060e-03,20.2,12.2,35
-9.7040e-03,20.6,12.4,35.4
-9.7020e-03,19.4,12.4,34.6
-9.7000e-03,20.6,12.4,35.8
-9.6980e-03,20.2,12,35.4
-9.6960e-03,20.2,12.6,34.6
-9.6940e-03,19.4,12.4,35
-9.6920e-03,19.8,12.4,35.8
-9.6900e-03,19.8,12.4,34.6
-9.6880e-03,19.8,12.6,35.8
-9.6860e-03,19,12.4,35
-9.6840e-03,19,12.4,34.6
-9.6820e-03,19.4,12.6,35.4
-9.6800e-03,19.4,12.6,34.6
-9.6780e-03,19.8,12.4,34.6
-9.6760e-03,19.8,12.8,34.6
-9.6740e-03,19.8,12.6,35.4
-9.6720e-03,20.2,12,35.4
-9.6700e-03,19.8,12.6,35
-9.6680e-03,19.8,12,35.4
-9.6660e-03,19.4,12.4,35
-9.6640e-03,19.8,12.4,35.4
-9.6620e-03,19.8,12.8,34.6
-9.6600e-03,19.4,12.6,35
-9.6580e-03,19.8,12.4,34.6
-9.6560e-03,19.4,12.6,35
-9.6540e-03,19.4,12.4,34.6
-9.6520e-03,20.2,12.4,35
-9.6500e-03,19.4,12.2,34.2
-9.6480e-03,19.8,12.8,35
-9.6460e-03,19,12.2,35
-9.6440e-03,19.8,12.6,35.4
-9.6420e-03,19.8,12.4,35.4
-9.6400e-03,19.4,12.8,35
-9.6380e-03,19.4,12.4,35
-9.6360e-03,19.4,12.6,35.4
-9.6340e-03,20.2,12.4,35.4
-9.6320e-03,20.6,12.6,35.4
-9.6300e-03,19.4,12.2,34.6
-9.6280e-03,20.2,12.4,34.2
-9.6260e-03,19.8,12.4,35
-9.6240e-03,19.4,12.2,35
-9.6220e-03,20.2,12.6,35
-9.6200e-03,19.4,12.4,35.4
-9.6180e-03,19.8,12.4,35
-9.6160e-03,19.8,12.4,35.4
-9.6140e-03,20.2,12.8,35.4
-9.6120e-03,20.2,12.2,35.8
-9.6100e-03,19.8,12.2,34.6
-9.6080e-03,20.2,12.4,35
-9.6060e-03,19.4,12.2,34.6
-9.6040e-03,19.8,12.2,35.4
-9.6020e-03,19.8,12.4,34.6
-9.6000e-03,20.2,12.2,35
-9.5980e-03,19.8,12.6,35
-9.5960e-03,20.2,12.2,35.4
-9.5940e-03,19.8,12.4,36.2
-9.5920e-03,19.8,12.4,35.4
-9.5900e-03,19.8,12.2,34.2
-9.5880e-03,19.8,12.4,35
-9.5860e-03,20.2,12.2,35
-9.5840e-03,20.2,12.2,35
-9.5820e-03,19.8,12.8,35
-9.5800e-03,19.8,12.6,35
-9.5780e-03,19.4,12.4,35
-9.5760e-03,19.8,12.4,34.6
-9.5740e-03,19.4,12.6,35.4
-9.5720e-03,19.8,12.6,35
-9.5700e-03,19.4,12.2,35
-9.5680e-03,20.2,12.4,34.6
-9.5660e-03,19.4,12.4,35
-9.5640e-03,19.8,12.4,35
-9.5620e-03,20.6,12.2,35.4
-9.5600e-03,20.2,12.4,35
-9.5580e-03,19.8,12.2,35
-9.5560e-03,19.8,12.4,35.4
-9.5540e-03,19.4,12.6,34.6
-9.5520e-03,19.4,12.8,35
-9.5500e-03,20.2,12.2,34.6
-9.5480e-03,19.4,12.2,35
-9.5460e-03,19.8,12.6,35
-9.5440e-03,19.8,12.4,35
-9.5420e-03,20.6,12.6,35.4
-9.5400e-03,19.4,12.6,35
-9.5380e-03,19,12.6,34.6
-9.5360e-03,19.8,12.4,34.6
-9.5340e-03,19.8,12.2,35.4
-9.5320e-03,19.4,12.2,35
-9.5300e-03,19.8,12.4,34.2
-9.5280e-03,19.8,12.2,35
-9.5260e-03,19.4,12.8,35
-9.5240e-03,19.4,12.4,35.4
-9.5220e-03,19.4,12.6,35.4
-9.5200e-03,19.4,12.6,35.4
-9.5180e-03,19.8,12.8,34.6
-9.5160e-03,19.8,12.2,34.6
-9.5140e-03,19.4,12.2,34.6
-9.5120e-03,19.8,12.4,35
-9.5100e-03,19.4,12.4,34.2
-9.5080e-03,19.4,12.2,35
-9.5060e-03,19.4,12.4,35.4
-9.5040e-03,19.8,12.6,35
-9.5020e-03,20.2,12.2,35.4
-9.5000e-03,19.4,12.6,34.2
-9.4980e-03,19.8,12.6,35.4
-9.4960e-03,20.2,12.6,34.6
-9.4940e-03,19.8,12.6,35.8
-9.4920e-03,20.2,12.4,35
-9.4900e-03,19.8,12.6,35
-9.4880e-03,19.8,12.4,35.4
-9.4860e-03,19.8,12.2,35
-9.4840e-03,19.4,12.2,35.8
-9.4820e-03,19.4,12.4,35.8
-9.4800e-03,20.2,12.6,35.4
-9.4780e-03,19.8,12.6,35
-9.4760e-03,19.4,12.2,35
-9.4740e-03,19.8,12.6,35.4
-9.4720e-03,19.8,12.6,35.4
-9.4700e-03,19.4,12.4,34.6
-9.4680e-03,19.8,12.6,34.6
-9.4660e-03,19.4,12.8,34.6
-9.4640e-03,19.8,12.6,34.6
-9.4620e-03,19.4,12.2,35.4
-9.4600e-03,19.4,12.4,35.4
-9.4580e-03,19.8,12.6,34.6
-9.4560e-03,19.4,12.2,35
-9.4540e-03,19.4,12.4,35
-9.4520e-03,19.8,12.4,34.6
-9.4500e-03,19.4,12.2,34.6
-9.4480e-03,20.2,12.2,34.6
-9.4460e-03,20.2,12.6,35
-9.4440e-03,19.8,12.2,35.4
-9.4420e-03,19.4,12.8,35.4
-9.4400e-03,19.4,12.6,35
-9.4380e-03,19.8,12.4,35.4
-9.4360e-03,20.2,12.4,35.4
-9.4340e-03,19.4,12.2,35
-9.4320e-03,19.4,12.6,35.4
-9.4300e-03,19.4,12,34.6
-9.4280e-03,19.4,12.4,35
-9.4260e-03,19.8,12.6,35.4
-9.4240e-03,20.2,12.2,35.8
-9.4220e-03,19.4,12.2,35.4
-9.4200e-03,19.8,12.4,34.6
-9.4180e-03,20.2,12.6,35
-9.4160e-03,19.4,12.6,35.4
-9.4140e-03,19.8,12.6,35.4
-9.4120e-03,19.8,12.4,35
-9.4100e-03,19.8,12.2,34.6
-9.4080e-03,19.4,12.6,35
-9.4060e-03,19.4,12.4,35.8
-9.4040e-03,19.4,12.4,35
-9.4020e-03,19.8,12.4,35
-9.4000e-03,20.2,12.6,35.4
-9.3980e-03,20.2,12.4,35.4
-9.3960e-03,19.8,12.4,34.6
-9.3940e-03,19.8,12.8,35.4
-9.3920e-03,20.2,12.6,34.6
-9.3900e-03,19,12.2,35
-9.3880e-03,19,12.4,35
-9.3860e-03,20.2,12.6,34.6
-9.3840e-03,19.8,12.4,34.2
-9.3820e-03,19.4,12.6,34.6
-9.3800e-03,19.4,12.4,34.6
-9.3780e-03,20.2,12.6,35.4
-9.3760e-03,20.2,12.2,35.4
-9.3740e-03,19.8,12.4,35
-9.3720e-03,19.4,12.2,35.4
-9.3700e-03,19.8,12.2,34.6
-9.3680e-03,19.4,12.4,34.6
-9.3660e-03,19.4,12.4,35.4
-9.3640e-03,19.4,12.6,35.4
-9.3620e-03,19.8,12.4,35.4
-9.3600e-03,19.8,12.4,35
-9.3580e-03,20.2,12.6,35.4
-9.3560e-03,20.2,12.4,35
-9.3540e-03,19.4,12.6,35.4
-9.3520e-03,19.4,12.6,35
-9.3500e-03,19.8,12.2,34.6
-9.3480e-03,20.6,12.6,35
-9.3460e-03,19.8,12.4,35
-9.3440e-03,19.8,12.4,35
-9.3420e-03,19.4,12.2,35.8
-9.3400e-03,19.4,12.2,35
-9.3380e-03,19.4,12.6,35
-9.3360e-03,19.4,12.2,35
-9.3340e-03,19.4,12.6,35.4
-9.3320e-03,19.8,12.4,35.8
-9.3300e-03,19.8,12.6,35.4
-9.3280e-03,19,12.6,35
-9.3260e-03,19.4,12,34.6
-9.3240e-03,20.2,12,35.4
-9.3220e-03,19.4,12.8,34.6
-9.3200e-03,19.4,12.4,34.6
-9.3180e-03,19,12.6,35.4
-9.3160e-03,20.2,12.6,35
-9.3140e-03,19.4,12,35.8
-9.3120e-03,19.8,12.4,35.4
-9.3100e-03,20.2,12.4,35
-9.3080e-03,20.2,12.4,35.4
-9.3060e-03,19.8,12.4,34.6
-9.3040e-03,20.6,12.6,34.6
-9.3020e-03,19.8,12.2,35.4
-9.3000e-03,19.4,12.6,35
-9.2980e-03,19.8,12.2,36.6
-9.2960e-03,19.4,12.6,36.2
-9.2940e-03,19.8,12.4,35.8
-9.2920e-03,19.4,12.4,35
-9.2900e-03,19.4,12.2,35.4
-9.2880e-03,19.8,12.4,35.4
-9.2860e-03,20.2,12.4,35.8
-9.2840e-03,19.4,12.4,35
-9.2820e-03,19.4,12.4,35
-9.2800e-03,20.2,12.4,34.6
-9.2780e-03,19.8,12.8,35
-9.2760e-03,19.4,12.2,35.8
-9.2740e-03,19,12.2,35.8
-9.2720e-03,20.2,12.6,35.4
-9.2700e-03,20.2,12.4,34.6
-9.2680e-03,19.4,12.2,35
-9.2660e-03,20.2,12.2,35.4
-9.2640e-03,19.8,12.8,35.4
-9.2620e-03,19.4,12.4,35.4
-9.2600e-03,20.2,12.4,35.4
-9.2580e-03,19.8,12.6,34.6
-9.2560e-03,20.6,12.4,35
-9.2540e-03,19.4,12.2,35.4
-9.2520e-03,20.2,12.2,35
-9.2500e-03,20.2,12.2,35.8
-9.2480e-03,19.8,12.2,35
-9.2460e-03,20.2,12.2,35
-9.2440e-03,19.4,12.6,34.6
-9.2420e-03,19.8,12.2,34.6
-9.2400e-03,19.8,12.4,35
-9.2380e-03,19.8,12.6,35
-9.2360e-03,20.2,12.6,35.4
-9.2340e-03,20.2,12.2,35.4
-9.2320e-03,19,12.4,35.4
-9.2300e-03,19.8,12.4,35.8
-9.2280e-03,19.4,12.6,34.6
-9.2260e-03,18.6,12.4,35
-9.2240e-03,19.8,12.2,35
-9.2220e-03,20.2,12.4,35.4
-9.2200e-03,19.8,12.4,34.6
-9.2180e-03,19.4,12.8,35
-9.2160e-03,20.2,12.8,34.6
-9.2140e-03,19.4,12.6,35
-9.2120e-03,19.4,12,35
-9.2100e-03,19.8,12.4,34.6
-9.2080e-03,19.8,12.4,35.8
-9.2060e-03,19.8,12.2,35
-9.2040e-03,19.8,12.6,35
-9.2020e-03,20.2,12.6,35
-9.2000e-03,19.8,12.2,35.4
-9.1980e-03,20.2,12.8,35.4
-9.1960e-03,20.2,12.6,35.4
-9.1940e-03,19.8,12.6,35.4
-9.1920e-03,19.8,12.6,35
-9.1900e-03,19.8,12.2,35
-9.1880e-03,19.8,12.2,35.8
-9.1860e-03,19.4,12,35
-9.1840e-03,19.8,12.2,35.4
-9.1820e-03,19.4,12.8,35
-9.1800e-03,19.4,12.8,34.6
-9.1780e-03,19.4,12.2,35.4
-9.1760e-03,19.8,12.2,35
-9.1740e-03,19.8,12.2,35.8
-9.1720e-03,19.8,12.2,35.4
-9.1700e-03,20.2,12.4,35.4
-9.1680e-03,19.8,12.6,34.6
-9.1660e-03,19.4,12.2,35.8
-9.1640e-03,19.8,12.4,35
-9.1620e-03,19.8,12.8,35
-9.1600e-03,20.2,12.4,34.6
-9.1580e-03,18.6,12.4,35.4
-9.1560e-03,19.4,12.6,35
-9.1540e-03,19.8,12.6,35.4
-9.1520e-03,19.4,12.6,35.4
-9.1500e-03,19.8,12.6,34.6
-9.1480e-03,19.8,12.4,35
-9.1460e-03,19.8,12.8,35.4
-9.1440e-03,19.4,12.6,34.6
-9.1420e-03,19.8,12.2,35
-9.1400e-03,19.4,12.4,35.8
-9.1380e-03,19.4,12.2,35.4
-9.1360e-03,20.2,12.2,35.4
-9.1340e-03,20.2,12.2,35.4
-9.1320e-03,20.2,12.6,35.4
-9.1300e-03,19.4,12.2,35
-9.1280e-03,19.4,12.6,35.8
-9.1260e-03,20.2,12.4,35
-9.1240e-03,19.4,12.6,34.6
-9.1220e-03,19.4,12.6,35.4
-9.1200e-03,19.8,12.6,35.8
-9.1180e-03,19.4,12.4,35
-9.1160e-03,19.8,12.4,35
-9.1140e-03,19.4,12,35
-9.1120e-03,19.8,12.4,35
-9.1100e-03,19.8,12.2,35
-9.1080e-03,19,12.4,35.4
-9.1060e-03,19.8,12.4,35.8
-9.1040e-03,20.2,12.2,35
-9.1020e-03,19.8,12.4,35.4
-9.1000e-03,19.8,12.2,35
-9.0980e-03,19.8,12.2,35
-9.0960e-03,19.4,12.4,35.4
-9.0940e-03,20.2,12.4,35
-9.0920e-03,19.8,12.4,35.4
-9.0900e-03,19,12.6,35.4
-9.0880e-03,20.2,12.2,35
-9.0860e-03,20.2,12.6,35.8
-9.0840e-03,19.4,12.6,35.8
-9.0820e-03,20.2,12.2,34.6
-9.0800e-03,19.8,12.4,35.4
-9.0780e-03,20.2,12.4,35.4
-9.0760e-03,19.4,12.6,35.4
-9.0740e-03,19.8,12.4,35.4
-9.0720e-03,19.8,12.8,35
-9.0700e-03,19.8,12.6,35
-9.0680e-03,19.8,12.4,35.4
-9.0660e-03,19.8,12.6,35.8
-9.0640e-03,19.4,12.4,35.4
-9.0620e-03,20.2,12.4,35.4
-9.0600e-03,20.6,12.6,35.4
-9.0580e-03,20.2,12.2,35
-9.0560e-03,19.4,12.2,35.4
-9.0540e-03,19.8,12.4,34.6
-9.0520e-03,20.2,12.2,35
-9.0500e-03,20.2,12.2,35.4
-9.0480e-03,20.2,12.4,35.4
-9.0460e-03,20.2,12.4,35
-9.0440e-03,20.2,12.2,35
-9.0420e-03,20.2,12.8,35
-9.0400e-03,19.8,12.6,35
-9.0380e-03,19.4,12.8,35.4
-9.0360e-03,20.2,12.2,35.4
-9.0340e-03,20.2,12.4,35
-9.0320e-03,19.4,12.8,35
-9.0300e-03,19.8,12.6,34.6
-9.0280e-03,19.8,12.4,35.4
-9.0260e-03,19.4,12.2,34.6
-9.0240e-03,19.8,12.4,35.8
-9.0220e-03,19.8,12.6,35.4
-9.0200e-03,19.4,12.4,35
-9.0180e-03,19.8,12.6,35.4
-9.0160e-03,19.8,12.6,35.4
-9.0140e-03,19.4,12.4,35
-9.0120e-03,19.8,12.2,34.6
-9.0100e-03,19.4,12.2,35.8
-9.0080e-03,19.8,12.4,35.8
-9.0060e-03,19.4,12.4,35.4
-9.0040e-03,19.8,12.4,35.4
-9.0020e-03,19.8,12.6,34.6
-9.0000e-03,19.8,12.4,35.4
-8.9980e-03,18.6,12.6,35
-8.9960e-03,19.4,12.6,35.8
-8.9940e-03,19.8,12.6,34.6
-8.9920e-03,19.4,12.2,35
-8.9900e-03,19.8,12.4,35
-8.9880e-03,20.2,12.6,35.4
-8.9860e-03,19.4,12.6,35.4
-8.9840e-03,19.8,13,35.4
-8.9820e-03,19.8,12.6,35.4
-8.9800e-03,19.8,12,35
-8.9780e-03,19.4,12.8,34.6
-8.9760e-03,19.4,12.2,35.8
-8.9740e-03,19.8,12.2,35
-8.9720e-03,20.2,12.4,35.4
-8.9700e-03,19.8,12.6,35.8
-8.9680e-03,19.8,12.4,35.4
-8.9660e-03,19.8,12.4,34.6
-8.9640e-03,19.8,12.4,34.6
-8.9620e-03,19.4,12.4,35
-8.9600e-03,19.4,12.4,35.4
-8.9580e-03,19.4,12.4,34.6
-8.9560e-03,20.6,12.6,35.8
-8.9540e-03,19.4,12.6,35
-8.9520e-03,19.8,12.4,35.8
-8.9500e-03,19,12.4,35.4
-8.9480e-03,20.2,12.4,35
-8.9460e-03,19.8,12.4,34.6
-8.9440e-03,19.8,12.6,34.6
-8.9420e-03,20.2,12.4,35
-8.9400e-03,20.2,12.4,35
-8.9380e-03,20.2,12.6,35.4
-8.9360e-03,20.2,12.8,35
-8.9340e-03,19.8,12.6,34.6
-8.9320e-03,20.2,12.2,35.4
-8.9300e-03,19.4,12.2,35.4
-8.9280e-03,19.8,12,35.8
-8.9260e-03,19.8,12.4,35.4
-8.9240e-03,19,12.6,35.4
-8.9220e-03,19.8,12.6,35
-8.9200e-03,19.8,12.6,34.2
-8.9180e-03,19.8,12.4,35
-8.9160e-03,20.2,12.8,35.8
-8.9140e-03,19.4,12.4,35.4
-8.9120e-03,19,12.6,35
-8.9100e-03,19,12.4,35
-8.9080e-03,20.2,12.8,34.6
-8.9060e-03,20.2,12.6,35
-8.9040e-03,19.4,12.6,35.4
-8.9020e-03,19.8,12.6,35.8
-8.9000e-03,19.4,12.6,35.4
-8.8980e-03,20.2,12.4,35
-8.8960e-03,19.8,12.6,35
-8.8940e-03,19.8,12,35.4
-8.8920e-03,19.8,12.4,35.4
-8.8900e-03,19.4,12.6,35
-8.8880e-03,19.4,12.6,35.4
-8.8860e-03,19.8,12.4,35
-8.8840e-03,19.8,12.4,35.4
-8.8820e-03,19.8,12.6,35.4
-8.8800e-03,19.4,12.4,35.4
-8.8780e-03,19.8,12.4,35.4
-8.8760e-03,19.8,12.2,34.2
-8.8740e-03,19.8,12.2,35.8
-8.8720e-03,19.8,12.6,35
-8.8700e-03,19.4,12.6,35.4
-8.8680e-03,19.8,12.4,35
-8.8660e-03,20.2,12.2,35
-8.8640e-03,19.4,12.8,35.4
-8.8620e-03,19.4,12.6,35
-8.8600e-03,20.2,12.4,35
-8.8580e-03,19.8,12.6,35
-8.8560e-03,19.8,12.4,35
-8.8540e-03,19.8,12.2,35.8
-8.8520e-03,19.8,12.4,35.4
-8.8500e-03,20.2,12.6,36.2
-8.8480e-03,19.8,12.6,35.8
-8.8460e-03,19.4,12.6,35.4
-8.8440e-03,19.4,12.4,34.6
-8.8420e-03,19.4,12.6,34.6
-8.8400e-03,19.4,12.4,35
-8.8380e-03,19.8,12.6,35.8
-8.8360e-03,19,12.6,35.4
-8.8340e-03,20.2,12.6,35.4
-8.8320e-03,20.2,12,35.8
-8.8300e-03,20.2,12.2,35.4
-8.8280e-03,19.8,12,35
-8.8260e-03,19.4,12.4,35
-8.8240e-03,19.4,12.4,35
-8.8220e-03,19.4,12.4,35
-8.8200e-03,20.2,12.6,34.6
-8.8180e-03,19.8,12.6,35
-8.8160e-03,19.8,12.4,35.4
-8.8140e-03,19.4,12.6,35.8
-8.8120e-03,20.2,12.6,35.4
-8.8100e-03,20.2,12.2,35.8
-8.8080e-03,19,12.2,34.6
-8.8060e-03,20.2,12.2,35
-8.8040e-03,19,12.6,35.8
-8.8020e-03,19.8,12.4,35.8
-8.8000e-03,20.2,12.6,35
-8.7980e-03,20.2,12.6,35.4
-8.7960e-03,19,12.4,35.8
-8.7940e-03,19.4,12.2,35.4
-8.7920e-03,20.2,12.2,35.4
-8.7900e-03,19.4,12.2,35.4
-8.7880e-03,19.8,12.4,35
-8.7860e-03,19.8,12.2,34.6
-8.7840e-03,19.4,12.2,34.6
-8.7820e-03,18.6,12.4,35.4
-8.7800e-03,19.4,12.4,35
-8.7780e-03,19.8,12.6,35
-8.7760e-03,20.2,12.6,35.4
-8.7740e-03,20.2,12.4,35.4
-8.7720e-03,19,12.2,35
-8.7700e-03,19.8,12.4,35
-8.7680e-03,19.8,12.4,34.6
-8.7660e-03,19.4,12.2,35
-8.7640e-03,19.4,12.6,35.4
-8.7620e-03,19.8,12.4,35.4
-8.7600e-03,19,12.4,35
-8.7580e-03,19.8,12.6,34.6
-8.7560e-03,19.8,12.4,35.4
-8.7540e-03,19.8,12.4,35
-8.7520e-03,19.8,12.4,34.6
-8.7500e-03,19,12.6,35.4
-8.7480e-03,19.4,12.6,35.4
-8.7460e-03,19.4,12.4,34.2
-8.7440e-03,19.8,12.4,35
-8.7420e-03,20.2,12.4,35
-8.7400e-03,20.6,12,35
-8.7380e-03,19.4,12.4,35
-8.7360e-03,19.4,12.6,35
-8.7340e-03,19.4,12.8,35
-8.7320e-03,19,12.4,34.6
-8.7300e-03,19.8,12.4,35.4
-8.7280e-03,19.8,12.6,35.4
-8.7260e-03,20.2,12.2,35
-8.7240e-03,19.8,12.4,35.4
-8.7220e-03,19.4,12.2,35.4
-8.7200e-03,19.8,12.2,35
-8.7180e-03,19.8,12.8,35
-8.7160e-03,19.4,12.4,35.4
-8.7140e-03,19.8,12.6,35.8
-8.7120e-03,19.8,12.4,35
-8.7100e-03,19.8,12,35.8
-8.7080e-03,19.8,12.4,34.6
-8.7060e-03,19.4,12.6,35
-8.7040e-03,19.4,12.6,35.4
-8.7020e-03,19.8,12.6,35.4
-8.7000e-03,19.8,12.4,35
-8.6980e-03,20.2,12.2,35
-8.6960e-03,20.6,12,35
-8.6940e-03,19.4,12.8,35
-8.6920e-03,19.8,12.2,35
-8.6900e-03,20.2,12.2,35.4
-8.6880e-03,19.8,12.2,35.4
-8.6860e-03,19.8,12.4,35
-8.6840e-03,20.2,12.2,35.4
-8.6820e-03,19.8,12.6,34.6
-8.6800e-03,19.4,12.2,35.4
-8.6780e-03,19.4,12.6,35.8
-8.6760e-03,20.2,12.4,35
-8.6740e-03,19.8,12.2,35
-8.6720e-03,19.4,12.6,35.8
-8.6700e-03,19.8,12,35.4
-8.6680e-03,19.8,12.6,35
-8.6660e-03,19.4,12.4,35.4
-8.6640e-03,19.8,12.2,35.4
-8.6620e-03,20.2,12.4,35.4
-8.6600e-03,19.4,12.4,34.6
-8.6580e-03,19.4,12.8,34.6
-8.6560e-03,20.2,12.6,35.4
-8.6540e-03,19.4,12.4,35.8
-8.6520e-03,20.2,12.2,35
-8.6500e-03,19.8,12.4,35.8
-8.6480e-03,19.4,12.4,35
-8.6460e-03,19.8,12.4,35.8
-8.6440e-03,19.8,12.4,35
-8.6420e-03,19.4,12.2,34.6
-8.6400e-03,20.2,12.2,35
-8.6380e-03,19,12.4,35.4
-8.6360e-03,20.2,12.2,35.4
-8.6340e-03,19.4,12.6,35.4
-8.6320e-03,19.8,12.4,35
-8.6300e-03,19.8,12.6,35.8
-8.6280e-03,19.8,12.4,35.8
-8.6260e-03,19.4,12.6,34.6
-8.6240e-03,19.4,12.4,34.6
-8.6220e-03,19.8,12.6,35
-8.6200e-03,19.8,12.4,35.4
-8.6180e-03,19.4,12.2,35.4
-8.6160e-03,19.8,12.4,35.8
-8.6140e-03,19.4,12.4,34.6
-8.6120e-03,19.8,12.4,35
-8.6100e-03,20.2,12.4,35.8
-8.6080e-03,19.8,12.2,36.2
-8.6060e-03,19.4,12.6,35.4
-8.6040e-03,19.8,12.2,35.4
-8.6020e-03,20.2,12.6,35
-8.6000e-03,19.4,12.4,35.4
-8.5980e-03,19.4,12.4,35
-8.5960e-03,19.8,12.6,35.4
-8.5940e-03,19.4,12.4,35.4
-8.5920e-03,19.8,12.2,35
-8.5900e-03,20.2,12.6,36.2
-8.5880e-03,19.8,12.4,35.4
-8.5860e-03,20.6,12.2,34.6
-8.5840e-03,19.8,12.4,35
-8.5820e-03,20.2,12,35.4
-8.5800e-03,19.4,12.6,35
-8.5780e-03,20.2,12.6,35
-8.5760e-03,20.2,12.4,35.4
-8.5740e-03,20.2,12.8,35.4
-8.5720e-03,19.8,12.4,35.4
-8.5700e-03,20.2,12.6,35
-8.5680e-03,19.8,12.4,35
-8.5660e-03,19.8,12.4,35
-8.5640e-03,19.8,12.6,35.8
-8.5620e-03,19.4,12.4,35
-8.5600e-03,19.4,12.6,35
-8.5580e-03,19.8,12.4,35
-8.5560e-03,19,12.6,35
-8.5540e-03,19.8,12.4,35.4
-8.5520e-03,19.4,12.6,35
-8.5500e-03,19.4,12.2,35.8
-8.5480e-03,20.6,12.4,35
-8.5460e-03,20.2,12.2,35.8
-8.5440e-03,19.8,12.6,35.4
-8.5420e-03,18.6,12.4,35.4
-8.5400e-03,19.4,12.6,35
-8.5380e-03,19.8,12.6,35.4
-8.5360e-03,20.2,12.2,35.4
-8.5340e-03,20.2,12.4,34.2
-8.5320e-03,19.4,12.6,35.4
-8.5300e-03,19.4,12.6,35.8
-8.5280e-03,19.4,12.2,35
-8.5260e-03,19.8,12.6,35
-8.5240e-03,20.2,12.4,35.4
-8.5220e-03,20.6,12.6,34.6
-8.5200e-03,19.4,12.6,35
-8.5180e-03,19.8,12.6,35
-8.5160e-03,19.8,12.6,35
-8.5140e-03,19.4,12.4,35.4
-8.5120e-03,19.4,12.6,35.4
-8.5100e-03,19.4,12.2,36.2
-8.5080e-03,19.8,12.4,35
-8.5060e-03,19.8,12.4,34.6
-8.5040e-03,19.8,12.6,35
-8.5020e-03,19.4,12.6,35
-8.5000e-03,19.8,12.6,35
-8.4980e-03,19.8,12.8,35
-8.4960e-03,20.2,12.2,35
-8.4940e-03,20.2,12.4,35
-8.4920e-03,18.6,12.4,35
-8.4900e-03,19.4,12.2,35.8
-8.4880e-03,20.2,12.6,35.4
-8.4860e-03,19.4,12.8,35.4
-8.4840e-03,19.4,12.4,35
-8.4820e-03,19.8,12.4,34.6
-8.4800e-03,19.8,12.6,35
